module github.com/SawitProRecruitment/UserService

go 1.19

require (
	github.com/DATA-DOG/go-sqlmock v1.5.0
	github.com/getkin/kin-openapi v0.117.0
	github.com/golang/mock v1.6.0
	github.com/labstack/echo/v4 v4.11.1
	github.com/lib/pq v1.10.9
)

require (
	github.com/gabriel-vasile/mimetype v1.4.2 // indirect
	github.com/go-playground/locales v0.14.1 // indirect
	github.com/go-playground/universal-translator v0.18.1 // indirect
	github.com/golang-jwt/jwt v3.2.2+incompatible // indirect
	github.com/leodido/go-urn v1.2.4 // indirect
	golang.org/x/time v0.3.0 // indirect
)

require (
	github.com/go-openapi/jsonpointer v0.19.5 // indirect
	github.com/go-openapi/swag v0.21.1 // indirect
	github.com/go-playground/validator/v10 v10.14.1
	github.com/golang-jwt/jwt/v5 v5.0.0
	github.com/invopop/yaml v0.1.0 // indirect
	github.com/josharian/intern v1.0.0 // indirect
	github.com/labstack/gommon v0.4.0 // indirect
	github.com/mailru/easyjson v0.7.7 // indirect
	github.com/mattn/go-colorable v0.1.13 // indirect
	github.com/mattn/go-isatty v0.0.19 // indirect
	github.com/mohae/deepcopy v0.0.0-20170929034955-c48cc78d4826 // indirect
	github.com/perimeterx/marshmallow v1.1.4 // indirect
	github.com/stretchr/testify v1.8.3 // indirect
	github.com/ugorji/go/codec v1.2.11 // indirect
	github.com/valyala/bytebufferpool v1.0.0 // indirect
	github.com/valyala/fasttemplate v1.2.2 // indirect
	golang.org/x/crypto v0.11.0
	golang.org/x/net v0.12.0 // indirect
	golang.org/x/sys v0.10.0 // indirect
	golang.org/x/text v0.11.0 // indirect
	gopkg.in/yaml.v2 v2.4.0 // indirect
	gopkg.in/yaml.v3 v3.0.1 // indirect
)
